{
  "buttons": ["html", "formatting", "bold", "italic", "unorderedlist", "orderedlist", "link", "image"],
  "plugins": ["alignment", "video", "fontcolor", "buttons"],
  "linkNewTab": true,
  "toolbarFixed": true,
  "imageResizable": true,
  "imagePosition": true,
  "fontcolors": ["#000", "#333", "#555", "#777", "#999", "#aaa", "#ffffff" ]
}